[api-updater (non-obsolete-error-filter)] 28.04.2021 23:26:42 : Starting C:/Program Files/Unity/Editor/Data/Tools/ScriptUpdater/APIUpdater.NonObsoleteApiUpdaterDetector.exe
[api-updater (non-obsolete-error-filter)] 
----------------------------------
jit/startup time      : 413,3389ms
moved types parse time: 102ms
candidates parse time : 3ms
C# parse time         : 479ms
candidates check time : 69ms
console write time    : 0ms

